<?xml version="1.0" encoding="UTF-8"?>
<svg fill="#504e4f" width="100pt" height="100pt" version="1.1" viewBox="0 0 100 100" xmlns="http://www.w3.org/2000/svg">
 <path d="m50.281 71.996c0.89062-0.054688 1.7383-0.40625 2.4062-1l40-36c0.79688-0.71094 1.2734-1.7109 1.332-2.7734 0.058594-1.0664-0.3125-2.1133-1.0273-2.9062-0.71484-0.79297-1.7148-1.2695-2.7773-1.3242-1.0664-0.050782-2.1133 0.32031-2.9023 1.0352l-37.312 33.594-37.312-33.594c-0.78906-0.71484-1.8359-1.0859-2.9023-1.0352-1.0625 0.054687-2.0625 0.53125-2.7773 1.3242-0.71484 0.79297-1.0859 1.8398-1.0273 2.9062 0.058593 1.0625 0.53516 2.0625 1.332 2.7734l40 36c0.8125 0.72266 1.8828 1.0859 2.9688 1z"/>
</svg>
